\relax 
\catcode`:\active
\catcode`;\active
\catcode`!\active
\catcode`?\active
\providecommand \oddpage@label [2]{}
\select@language{french}
\@writefile{toc}{\select@language{french}}
\@writefile{lof}{\select@language{french}}
\@writefile{lot}{\select@language{french}}
\@writefile{toc}{\contentsline {section}{Introduction}{4}}
\@writefile{toc}{\contentsline {section}{\numberline {I}Description du projet et objectif}{4}}
\@writefile{toc}{\contentsline {section}{\numberline {II}Avancement au cours de l'ann\IeC {\'e}e}{5}}
\@writefile{toc}{\contentsline {section}{\numberline {III}Projet d'utilisation des logiciels IBM : SPSS et ODM}{6}}
\@writefile{toc}{\contentsline {subsection}{\numberline {III.1}Pr\IeC {\'e}sentation succincte de SPSS}{6}}
\@writefile{toc}{\contentsline {subsection}{\numberline {III.2}Pourquoi nous avons abandonn\IeC {\'e} SPSS}{6}}
\@writefile{toc}{\contentsline {subsection}{\numberline {III.3}Pr\IeC {\'e}sentation et utilisation d'ODM}{7}}
\@writefile{toc}{\contentsline {subsection}{\numberline {III.4}Difficult\IeC {\'e}s avec ODM}{7}}
\@writefile{toc}{\contentsline {section}{\numberline {IV}Analyse th\IeC {\'e}orique du probl\IeC {\`e}me et mod\IeC {\'e}lisation}{8}}
\@writefile{toc}{\contentsline {subsection}{\numberline {IV.1}D\IeC {\'e}termination statistique du th\IeC {\`e}me des messages}{8}}
\newlabel{themeMessages}{{IV.1}{8}}
\@writefile{toc}{\contentsline {subsubsection}{\numberline {IV.1.1}Normalisation du texte}{8}}
\@writefile{toc}{\contentsline {subsubsection}{\numberline {IV.1.2}Description de l'algorithme TfidfVectorizer}{8}}
\@writefile{toc}{\contentsline {subsubsection}{\numberline {IV.1.3}Classification des tweets par th\IeC {\`e}me - Entropie maximum}{9}}
\@writefile{toc}{\contentsline {paragraph}{Choix de la m\IeC {\'e}thode et de la biblioth\IeC {\`e}que}{9}}
\@writefile{toc}{\contentsline {paragraph}{Notations}{10}}
\@writefile{toc}{\contentsline {paragraph}{Mod\IeC {\`e}le logarithme-lin\IeC {\'e}aire}{10}}
\newlabel{estimation des coeffcients}{{IV.1.3}{11}}
\@writefile{toc}{\contentsline {paragraph}{Estimation des coefficients}{11}}
\newlabel{entropie}{{IV.1.3}{12}}
\@writefile{toc}{\contentsline {paragraph}{Quel rapport avec l'entropie?}{12}}
\@writefile{toc}{\contentsline {subsection}{\numberline {IV.2}D\IeC {\'e}terminer le profil de l'utilisateur}{13}}
\newlabel{profil}{{IV.2}{13}}
\@writefile{toc}{\contentsline {subsubsection}{\numberline {IV.2.1}Principe d'\IeC {\'e}laboration du profil en 5 \IeC {\'e}tapes}{14}}
\newlabel{etapes}{{IV.2.1}{14}}
\@writefile{toc}{\contentsline {subsubsection}{\numberline {IV.2.2}D\IeC {\'e}terminer le lien entre deux utlisateurs u et v}{16}}
\@writefile{lof}{\contentsline {figure}{\numberline {1}{\ignorespaces exmple de graphe biparti}}{16}}
\@writefile{toc}{\contentsline {subsubsection}{\numberline {IV.2.3}Apprentissage statistique}{16}}
\newlabel{stats}{{IV.2.3}{16}}
\@writefile{toc}{\contentsline {paragraph}{Base de donn\IeC {\'e}es}{17}}
\@writefile{toc}{\contentsline {paragraph}{Quelques m\IeC {\'e}thodes d'apprentissage statistique autre que la r\IeC {\'e}gression lin\IeC {\'e}aire}{17}}
\newlabel{regression lineaire}{{IV.2.3}{18}}
\@writefile{toc}{\contentsline {paragraph}{La r\IeC {\'e}gression lin\IeC {\'e}aire au service de la d\IeC {\'e}termination du profil d'un utilisateur}{18}}
\@writefile{toc}{\contentsline {subsection}{\numberline {IV.3}Traitement des messages (Tweets)}{18}}
\@writefile{toc}{\contentsline {subsubsection}{\numberline {IV.3.1}Pertinence d'un tweet}{18}}
\@writefile{lof}{\contentsline {figure}{\numberline {2}{\ignorespaces Liste des douze principaux th\IeC {\`e}mes}}{19}}
\@writefile{toc}{\contentsline {subsubsection}{\numberline {IV.3.2}Classification}{20}}
\@writefile{toc}{\contentsline {section}{\numberline {V}Construction d'une base de donn\IeC {\'e}es}{21}}
\@writefile{toc}{\contentsline {section}{\numberline {VI} Impl\IeC {\'e}mentation de l'application}{22}}
\@writefile{toc}{\contentsline {subsection}{\numberline {VI.1}Java}{22}}
\newlabel{API,application,java}{{VI.1}{22}}
\@writefile{toc}{\contentsline {subsection}{\numberline {VI.2}Utilisation des biblioth\IeC {\`e}ques Python}{22}}
\@writefile{toc}{\contentsline {subsubsection}{\numberline {VI.2.1}Motivations}{22}}
\@writefile{toc}{\contentsline {subsubsection}{\numberline {VI.2.2}Probl\IeC {\`e}mes d'int\IeC {\'e}grations Jython}{23}}
\@writefile{toc}{\contentsline {subsection}{\numberline {VI.3}Impl\IeC {\'e}mentation en Java du traitement des messages}{23}}
\@writefile{toc}{\contentsline {subsubsection}{\numberline {VI.3.1}Biblioth\IeC {\`e}ques Java : Stanford Classifier et Snowball}{23}}
\@writefile{toc}{\contentsline {subsubsection}{\numberline {VI.3.2}Structure du projet Java}{23}}
\@writefile{toc}{\contentsline {paragraph}{TwMParser}{23}}
\@writefile{toc}{\contentsline {paragraph}{AbstractTweetParser}{24}}
\@writefile{toc}{\contentsline {paragraph}{classifier}{24}}
\@writefile{toc}{\contentsline {paragraph}{Tweet}{24}}
\@writefile{toc}{\contentsline {paragraph}{themes}{24}}
\@writefile{toc}{\contentsline {paragraph}{LinearRegression}{24}}
\@writefile{toc}{\contentsline {paragraph}{profil}{24}}
\@writefile{toc}{\contentsline {paragraph}{LastTweets}{24}}
\@writefile{toc}{\contentsline {subsection}{\numberline {VI.4}Une application sous android}{25}}
\@writefile{toc}{\contentsline {subsubsection}{\numberline {VI.4.1}Fonctionnalit\IeC {\'e}s principales de l'application}{25}}
\@writefile{toc}{\contentsline {subsubsection}{\numberline {VI.4.2}Fonctionnement g\IeC {\'e}n\IeC {\'e}ral de l'application}{25}}
\@writefile{lof}{\contentsline {figure}{\numberline {3}{\ignorespaces Fonctionnement de l'application - flux de donn\IeC {\'e}es entre les composantes}}{26}}
\@writefile{toc}{\contentsline {subsubsection}{\numberline {VI.4.3}Int\IeC {\'e}gration des algorithmes de classement des Tweets et d'\IeC {\'e}laboration du profil}{26}}
\@writefile{toc}{\contentsline {paragraph}{Contraintes mat\IeC {\'e}rielles, vitesse d'\IeC {\'e}x\IeC {\'e}cution}{26}}
\@writefile{toc}{\contentsline {paragraph}{Contraintes li\IeC {\'e}es \IeC {\`a} Twitter}{27}}
\@writefile{toc}{\contentsline {subsection}{\numberline {VI.5}Extraction des donn\IeC {\'e}es}{28}}
\@writefile{toc}{\contentsline {subsubsection}{\numberline {VI.5.1}Connexion \IeC {\`a} Twitter}{28}}
\@writefile{toc}{\contentsline {subsubsection}{\numberline {VI.5.2}Quelles donn\IeC {\'e}es extrait-on ?}{28}}
\@writefile{toc}{\contentsline {subsubsection}{\numberline {VI.5.3}Stockage des donn\IeC {\'e}es}{28}}
\@writefile{toc}{\contentsline {section}{\numberline {VII}R\IeC {\'e}sultats}{29}}
\newlabel{resultats}{{VII}{29}}
\@writefile{toc}{\contentsline {subsubsection}{\numberline {VII.0.4}Efficacit\IeC {\'e} du classifieur}{29}}
\@writefile{toc}{\contentsline {subsubsection}{\numberline {VII.0.5}Construction du profil}{29}}
\@writefile{toc}{\contentsline {paragraph}{Variation de $\alpha $}{30}}
\@writefile{toc}{\contentsline {paragraph}{Variation de $\beta $}{30}}
\@writefile{toc}{\contentsline {paragraph}{Variation de $R_w$}{30}}
\@writefile{toc}{\contentsline {paragraph}{Variation de $W_{ff}$}{30}}
\@writefile{toc}{\contentsline {subsubsection}{\numberline {VII.0.6}Resultats finaux visibles par l'utilisateur}{31}}
\@writefile{toc}{\contentsline {section}{Conclusion}{32}}
\@writefile{toc}{\contentsline {section}{Bibliographie}{33}}
\newlabel{bibli}{{VII.0.6}{33}}
